fifo_verilog/transcript
# //  Questa Sim-64
# //  Version 2021.2_1 linux_x86_64 May 15 2021
# //
# //  Copyright 1991-2021 Mentor Graphics Corporation
# //  All Rights Reserved.
# //
# //  QuestaSim and its associated documentation contain trade
# //  secrets and commercial or financial information that are the property of
# //  Mentor Graphics Corporation and are privileged, confidential,
# //  and exempt from disclosure under the Freedom of Information Act,
# //  5 U.S.C. Section 552. Furthermore, this information
# //  is prohibited from disclosure under the Trade Secrets Act,
# //  18 U.S.C. Section 1905.
# //
# vsim -work ./build/work fifo_tb -do "run -all" 
# Start time: 16:10:15 on Feb 19,2025
# ** Note: (vsim-3812) Design is being optimized...
# ** Warning: ./src/fifo_memory.sv(78): (vopt-2685) [TFMPC] - Too few port connections for 'cmp_logic'.  Expected 5, found 4.
# ** Warning: ./src/fifo_memory.sv(78): (vopt-2718) [TFMPC] - Missing connection for port 'write_ena'.
# ** Note: (vsim-12126) Error and warning message counts have been restored: Errors=0, Warnings=2.
# Loading sv_std.std
# Loading work.fifo_tb(fast)
# Loading work.fifo_memory(fast)
# Loading work.write_interface(fast)
# Loading work.write_pointer(fast)
# Loading work.read_interface(fast)
# Loading work.read_pointer(fast)
# Loading work.dual_port_memory(fast)
# Loading work.compare_logic(fast)
# run -all
# write_en: 1, write_data: 66
# read_en: 1, read_data: 00, empty: 0
# write_en: 1, write_data: fb
# read_en: 1, read_data: 00, empty: 0
# write_en: 1, write_data: 1b
# read_en: 1, read_data: 66, empty: 0
# write_en: 1, write_data: 9b
# read_en: 1, read_data: fb, empty: 0
# write_en: 1, write_data: 67
# read_en: 1, read_data: 1b, empty: 0
# write_en: 1, write_data: 26
# read_en: 1, read_data: 9b, empty: 0
# write_en: 1, write_data: 95
# read_en: 1, read_data: 67, empty: 0
# write_en: 1, write_data: 43
# read_en: 1, read_data: 26, empty: 0
# write_en: 1, write_data: 7f
# read_en: 1, read_data: 95, empty: 0
# write_en: 1, write_data: d8
# read_en: 1, read_data: 43, empty: 0
# write_en: 1, write_data: 77
# read_en: 1, read_data: 7f, empty: 0
# write_en: 1, write_data: 7a
# read_en: 1, read_data: d8, empty: 0
# write_en: 1, write_data: 90
# read_en: 1, read_data: 77, empty: 0
# write_en: 1, write_data: 21
# read_en: 1, read_data: 7a, empty: 0
# write_en: 1, write_data: 7b
# read_en: 1, read_data: 90, empty: 0
# write_en: 1, write_data: 24
# read_en: 1, read_data: 21, empty: 0
# write_en: 1, write_data: 5d
# read_en: 1, read_data: 7b, empty: 0
# write_en: 1, write_data: 15
# read_en: 1, read_data: 24, empty: 0
# write_en: 1, write_data: 0f
# read_en: 1, read_data: 5d, empty: 0
# write_en: 1, write_data: 96
# read_en: 1, read_data: 15, empty: 0
# write_en: 1, write_data: 5d
# read_en: 1, read_data: 0f, empty: 0
# write_en: 1, write_data: 02
# read_en: 1, read_data: 96, empty: 0
# write_en: 1, write_data: 05
# read_en: 1, read_data: 5d, empty: 0
# write_en: 1, write_data: 93
# read_en: 1, read_data: 02, empty: 0
# write_en: 1, write_data: 4c
# read_en: 1, read_data: 05, empty: 0
# write_en: 1, write_data: db
# read_en: 1, read_data: 93, empty: 0
# write_en: 1, write_data: ce
# read_en: 1, read_data: 4c, empty: 0
# write_en: 1, write_data: 31
# read_en: 1, read_data: db, empty: 0
# write_en: 1, write_data: 16
# read_en: 1, read_data: ce, empty: 0
# write_en: 1, write_data: 7e
# read_en: 1, read_data: 31, empty: 0
# write_en: 1, write_data: 9d
# read_en: 1, read_data: 16, empty: 0
# write_en: 1, write_data: 2b
# read_en: 1, read_data: 7e, empty: 0
# write_en: 1, write_data: ab
# read_en: 1, read_data: 9d, empty: 0
# write_en: 1, write_data: 63
# read_en: 1, read_data: 2b, empty: 0
# write_en: 1, write_data: 1d
# read_en: 1, read_data: ab, empty: 0
# write_en: 1, write_data: 04
# read_en: 1, read_data: 63, empty: 0
# write_en: 1, write_data: 31
# read_en: 1, read_data: 1d, empty: 0
# write_en: 1, write_data: 1a
# read_en: 1, read_data: 04, empty: 0
# write_en: 1, write_data: d1
# read_en: 1, read_data: 31, empty: 0
# write_en: 1, write_data: 2c
# read_en: 1, read_data: 1a, empty: 0
# write_en: 1, write_data: b0
# read_en: 1, read_data: d1, empty: 0
# write_en: 1, write_data: 97
# read_en: 1, read_data: 2c, empty: 0
# write_en: 1, write_data: 18
# read_en: 1, read_data: b0, empty: 0
# write_en: 1, write_data: 3f
# read_en: 1, read_data: 97, empty: 0
# write_en: 1, write_data: 81
# read_en: 1, read_data: 18, empty: 0
# write_en: 1, write_data: 0b
# read_en: 1, read_data: 3f, empty: 0
# write_en: 1, write_data: 60
# read_en: 1, read_data: 81, empty: 0
# write_en: 1, write_data: 07
# read_en: 1, read_data: 0b, empty: 0
# write_en: 1, write_data: ae
# read_en: 1, read_data: 60, empty: 0
# write_en: 1, write_data: b4
# read_en: 1, read_data: 07, empty: 0
# write_en: 1, write_data: 93
# read_en: 1, read_data: ae, empty: 0
# write_en: 1, write_data: 8e
# read_en: 1, read_data: b4, empty: 0
# write_en: 1, write_data: 90
# read_en: 1, read_data: 93, empty: 0
# write_en: 1, write_data: ac
# read_en: 1, read_data: 8e, empty: 0
# write_en: 1, write_data: c7
# read_en: 1, read_data: 90, empty: 0
# write_en: 1, write_data: 56
# read_en: 1, read_data: ac, empty: 0
# write_en: 1, write_data: 9c
# read_en: 1, read_data: c7, empty: 0
# write_en: 1, write_data: 40
# read_en: 1, read_data: 56, empty: 0
# write_en: 1, write_data: 74
# read_en: 1, read_data: 9c, empty: 0
# write_en: 1, write_data: 17
# read_en: 1, read_data: 40, empty: 0
# write_en: 1, write_data: 01
# read_en: 1, read_data: 74, empty: 0
# write_en: 1, write_data: 01
# read_en: 1, read_data: 17, empty: 0
# write_en: 1, write_data: f0
# read_en: 1, read_data: 01, empty: 0
# write_en: 1, write_data: 40
# read_en: 1, read_data: 01, empty: 0
# write_en: 1, write_data: 94
# read_en: 1, read_data: f0, empty: 0
# write_en: 1, write_data: d2
# read_en: 1, read_data: 40, empty: 0
# write_en: 1, write_data: fd
# read_en: 1, read_data: 94, empty: 0
# write_en: 1, write_data: 0e
# read_en: 1, read_data: d2, empty: 0
# write_en: 1, write_data: b8
# read_en: 1, read_data: fd, empty: 0
# write_en: 1, write_data: dd
# read_en: 1, read_data: 0e, empty: 0
# write_en: 1, write_data: b7
# read_en: 1, read_data: b8, empty: 0
# write_en: 1, write_data: 2a
# read_en: 1, read_data: dd, empty: 0
# write_en: 1, write_data: 20
# read_en: 1, read_data: b7, empty: 0
# write_en: 1, write_data: f9
# read_en: 1, read_data: 2a, empty: 0
# write_en: 1, write_data: 97
# read_en: 1, read_data: 20, empty: 0
# write_en: 1, write_data: 00
# read_en: 1, read_data: f9, empty: 0
# write_en: 1, write_data: 37
# read_en: 1, read_data: 97, empty: 0
# write_en: 1, write_data: 00
# read_en: 1, read_data: 00, empty: 0
# write_en: 1, write_data: 60
# read_en: 1, read_data: 37, empty: 0
# write_en: 1, write_data: 77
# read_en: 1, read_data: 00, empty: 0
# write_en: 1, write_data: 21
# read_en: 1, read_data: 60, empty: 0
# write_en: 1, write_data: ae
# read_en: 1, read_data: 77, empty: 0
# write_en: 1, write_data: 8c
# read_en: 1, read_data: 21, empty: 0
# write_en: 1, write_data: 16
# read_en: 1, read_data: ae, empty: 0
# write_en: 1, write_data: b7
# read_en: 1, read_data: 8c, empty: 0
# write_en: 1, write_data: c2
# read_en: 1, read_data: 16, empty: 0
# write_en: 1, write_data: 40
# read_en: 1, read_data: b7, empty: 0
# write_en: 1, write_data: cc
# read_en: 1, read_data: c2, empty: 0
# write_en: 1, write_data: 99
# read_en: 1, read_data: 40, empty: 0
# write_en: 1, write_data: f4
# read_en: 1, read_data: cc, empty: 0
# write_en: 1, write_data: 48
# read_en: 1, read_data: 99, empty: 0
# write_en: 1, write_data: 55
# read_en: 1, read_data: f4, empty: 0
# write_en: 1, write_data: 52
# read_en: 1, read_data: 48, empty: 0
# write_en: 1, write_data: 80
# read_en: 1, read_data: 55, empty: 0
# write_en: 1, write_data: 55
# read_en: 1, read_data: 52, empty: 0
# write_en: 1, write_data: 08
# read_en: 1, read_data: 80, empty: 0
# write_en: 1, write_data: a9
# read_en: 1, read_data: 55, empty: 0
# write_en: 1, write_data: 3e
# read_en: 1, read_data: 08, empty: 0
# write_en: 1, write_data: 5f
# read_en: 1, read_data: a9, empty: 0
# write_en: 1, write_data: 8e
# read_en: 1, read_data: 3e, empty: 0
# write_en: 1, write_data: 24
# read_en: 1, read_data: 5f, empty: 0
# write_en: 1, write_data: 53
# read_en: 1, read_data: 8e, empty: 0
# write_en: 1, write_data: be
# read_en: 1, read_data: 24, empty: 0
# write_en: 1, write_data: 22
# read_en: 1, read_data: 53, empty: 0
# write_en: 1, write_data: fd
# read_en: 1, read_data: be, empty: 0
# write_en: 1, write_data: d8
# read_en: 1, read_data: 22, empty: 0
# write_en: 1, write_data: fc
# read_en: 1, read_data: fd, empty: 0
# write_en: 1, write_data: cd
# read_en: 1, read_data: d8, empty: 0
# write_en: 1, write_data: 97
# read_en: 1, read_data: fc, empty: 0
# write_en: 1, write_data: 39
# read_en: 1, read_data: cd, empty: 0
# write_en: 1, write_data: 61
# read_en: 1, read_data: 97, empty: 0
# write_en: 1, write_data: 5a
# read_en: 1, read_data: 39, empty: 0
# write_en: 1, write_data: b2
# read_en: 1, read_data: 61, empty: 0
# write_en: 1, write_data: 92
# read_en: 1, read_data: 5a, empty: 0
# write_en: 1, write_data: 7b
# read_en: 1, read_data: b2, empty: 0
# write_en: 1, write_data: f0
# read_en: 1, read_data: 92, empty: 0
# write_en: 1, write_data: 3c
# read_en: 1, read_data: 7b, empty: 0
# write_en: 1, write_data: 01
# read_en: 1, read_data: f0, empty: 0
# write_en: 1, write_data: 08
# read_en: 1, read_data: 3c, empty: 0
# write_en: 1, write_data: a8
# read_en: 1, read_data: 01, empty: 0
# write_en: 1, write_data: 00
# read_en: 1, read_data: 08, empty: 0
# write_en: 1, write_data: dd
# read_en: 1, read_data: a8, empty: 0
# write_en: 1, write_data: 2c
# read_en: 1, read_data: 00, empty: 0
# write_en: 1, write_data: d6
# read_en: 1, read_data: dd, empty: 0
# write_en: 1, write_data: 13
# read_en: 1, read_data: 2c, empty: 0
# write_en: 1, write_data: 27
# read_en: 1, read_data: d6, empty: 0
# write_en: 1, write_data: fc
# read_en: 1, read_data: 13, empty: 0
# write_en: 1, write_data: f3
# read_en: 1, read_data: 27, empty: 0
# write_en: 1, write_data: 27
# read_en: 1, read_data: fc, empty: 0
# write_en: 1, write_data: c9
# read_en: 1, read_data: f3, empty: 0
# write_en: 1, write_data: 2e
# read_en: 1, read_data: 27, empty: 0
# write_en: 1, write_data: d8
# read_en: 1, read_data: c9, empty: 0
# write_en: 1, write_data: cc
# read_en: 1, read_data: 2e, empty: 0
# write_en: 1, write_data: 20
# read_en: 1, read_data: d8, empty: 0
# write_en: 1, write_data: 9d
# read_en: 1, read_data: cc, empty: 0
# write_en: 1, write_data: 9b
# read_en: 1, read_data: 20, empty: 0
# write_en: 1, write_data: 7d
# read_en: 1, read_data: 9d, empty: 0
# write_en: 1, write_data: c7
# read_en: 1, read_data: 9b, empty: 0
# write_en: 1, write_data: a4
# read_en: 1, read_data: 7d, empty: 0
# write_en: 1, write_data: e9
# read_en: 1, read_data: c7, empty: 0
# write_en: 1, write_data: c8
# read_en: 1, read_data: a4, empty: 0
# write_en: 1, write_data: 4d
# read_en: 1, read_data: e9, empty: 0
# write_en: 1, write_data: 7f
# read_en: 1, read_data: c8, empty: 0
# write_en: 1, write_data: b2
# read_en: 1, read_data: 4d, empty: 0
# write_en: 1, write_data: 42
# read_en: 1, read_data: 7f, empty: 0
# write_en: 1, write_data: 7d
# read_en: 1, read_data: b2, empty: 0
# write_en: 1, write_data: dd
# read_en: 1, read_data: 42, empty: 0
# write_en: 1, write_data: 3a
# read_en: 1, read_data: 7d, empty: 0
# write_en: 1, write_data: 9a
# read_en: 1, read_data: dd, empty: 0
# write_en: 1, write_data: 09
# read_en: 1, read_data: 3a, empty: 0
# write_en: 1, write_data: c0
# read_en: 1, read_data: 9a, empty: 0
# write_en: 1, write_data: ba
# read_en: 1, read_data: 09, empty: 0
# write_en: 1, write_data: 6c
# read_en: 1, read_data: c0, empty: 0
# write_en: 1, write_data: 87
# read_en: 1, read_data: ba, empty: 0
# write_en: 1, write_data: f8
# read_en: 1, read_data: 6c, empty: 0
# write_en: 1, write_data: a0
# read_en: 1, read_data: 87, empty: 0
# write_en: 1, write_data: 43
# read_en: 1, read_data: f8, empty: 0
# write_en: 1, write_data: fd
# read_en: 1, read_data: a0, empty: 0
# write_en: 1, write_data: 2b
# read_en: 1, read_data: 43, empty: 0
# write_en: 1, write_data: 12
# read_en: 1, read_data: fd, empty: 0
# write_en: 1, write_data: 31
# read_en: 1, read_data: 2b, empty: 0
# write_en: 1, write_data: 07
# read_en: 1, read_data: 12, empty: 0
# write_en: 1, write_data: 0e
# read_en: 1, read_data: 31, empty: 0
# write_en: 1, write_data: 85
# read_en: 1, read_data: 07, empty: 0
# write_en: 1, write_data: 82
# read_en: 1, read_data: 0e, empty: 0
# write_en: 1, write_data: 55
# read_en: 1, read_data: 85, empty: 0
# write_en: 1, write_data: 34
# read_en: 1, read_data: 82, empty: 0
# write_en: 1, write_data: c4
# read_en: 1, read_data: 55, empty: 0
# write_en: 1, write_data: 7b
# read_en: 1, read_data: 34, empty: 0
# write_en: 1, write_data: 68
# read_en: 1, read_data: c4, empty: 0
# write_en: 1, write_data: 2f
# read_en: 1, read_data: 7b, empty: 0
# write_en: 1, write_data: 7e
# read_en: 1, read_data: 68, empty: 0
# write_en: 1, write_data: 80
# read_en: 1, read_data: 2f, empty: 0
# write_en: 1, write_data: 3c
# read_en: 1, read_data: 7e, empty: 0
# write_en: 1, write_data: 29
# read_en: 1, read_data: 80, empty: 0
# write_en: 1, write_data: 9f
# read_en: 1, read_data: 3c, empty: 0
# write_en: 1, write_data: 8a
# read_en: 1, read_data: 29, empty: 0
# write_en: 1, write_data: 58
# read_en: 1, read_data: 9f, empty: 0
# write_en: 1, write_data: 51
# read_en: 1, read_data: 8a, empty: 0
# write_en: 1, write_data: ac
# read_en: 1, read_data: 58, empty: 0
# write_en: 1, write_data: 04
# read_en: 1, read_data: 51, empty: 0
# write_en: 1, write_data: ce
# read_en: 1, read_data: ac, empty: 0
# write_en: 1, write_data: 77
# read_en: 1, read_data: 04, empty: 0
# write_en: 1, write_data: 2b
# read_en: 1, read_data: ce, empty: 0
# write_en: 1, write_data: 43
# read_en: 1, read_data: 77, empty: 0
# write_en: 1, write_data: 7f
# read_en: 1, read_data: 2b, empty: 0
# write_en: 1, write_data: f7
# read_en: 1, read_data: 43, empty: 0
# write_en: 1, write_data: f3
# read_en: 1, read_data: 7f, empty: 0
# write_en: 1, write_data: bc
# read_en: 1, read_data: f7, empty: 0
# write_en: 1, write_data: b7
# read_en: 1, read_data: f3, empty: 0
# write_en: 1, write_data: d8
# read_en: 1, read_data: bc, empty: 0
# write_en: 1, write_data: ff
# read_en: 1, read_data: b7, empty: 0
# write_en: 1, write_data: 4a
# read_en: 1, read_data: d8, empty: 0
# write_en: 1, write_data: 84
# read_en: 1, read_data: ff, empty: 0
# write_en: 1, write_data: d4
# read_en: 1, read_data: 4a, empty: 0
# write_en: 1, write_data: 5f
# read_en: 1, read_data: 84, empty: 0
# write_en: 1, write_data: b4
# read_en: 1, read_data: d4, empty: 0
# write_en: 1, write_data: 7c
# read_en: 1, read_data: 5f, empty: 0
# write_en: 1, write_data: 2e
# read_en: 1, read_data: b4, empty: 0
# write_en: 1, write_data: ab
# read_en: 1, read_data: 7c, empty: 0
# write_en: 1, write_data: 9d
# read_en: 1, read_data: 2e, empty: 0
# write_en: 1, write_data: c3
# read_en: 1, read_data: ab, empty: 0
# write_en: 1, write_data: 8c
# read_en: 1, read_data: 9d, empty: 0
# write_en: 1, write_data: ca
# read_en: 1, read_data: c3, empty: 0
# write_en: 1, write_data: fb
# read_en: 1, read_data: 8c, empty: 0
# write_en: 1, write_data: 31
# read_en: 1, read_data: ca, empty: 0
# write_en: 1, write_data: e2
# read_en: 1, read_data: fb, empty: 0
# write_en: 1, write_data: 64
# read_en: 1, read_data: 31, empty: 0
# write_en: 1, write_data: c6
# read_en: 1, read_data: e2, empty: 0
# write_en: 1, write_data: f1
# read_en: 1, read_data: 64, empty: 0
# write_en: 1, write_data: ff
# read_en: 1, read_data: c6, empty: 0
# write_en: 1, write_data: 5c
# read_en: 1, read_data: f1, empty: 0
# write_en: 1, write_data: bd
# read_en: 1, read_data: ff, empty: 0
# write_en: 1, write_data: 59
# read_en: 1, read_data: 5c, empty: 0
# write_en: 1, write_data: 09
# read_en: 1, read_data: bd, empty: 0
# write_en: 1, write_data: a2
# read_en: 1, read_data: 59, empty: 0
# write_en: 1, write_data: 10
# read_en: 1, read_data: 09, empty: 0
# write_en: 1, write_data: 9f
# read_en: 1, read_data: a2, empty: 0
# write_en: 1, write_data: 14
# read_en: 1, read_data: 10, empty: 0
# write_en: 1, write_data: 21
# read_en: 1, read_data: 9f, empty: 0
# write_en: 1, write_data: 10
# read_en: 1, read_data: 14, empty: 0
# write_en: 1, write_data: 6c
# read_en: 1, read_data: 21, empty: 0
# write_en: 1, write_data: d4
# read_en: 1, read_data: 10, empty: 0
# write_en: 1, write_data: 6e
# read_en: 1, read_data: 6c, empty: 0
# write_en: 1, write_data: 70
# read_en: 1, read_data: d4, empty: 0
# write_en: 1, write_data: de
# read_en: 1, read_data: 6e, empty: 0
# write_en: 1, write_data: b7
# read_en: 1, read_data: 70, empty: 0
# write_en: 1, write_data: 6f
# read_en: 1, read_data: de, empty: 0
# write_en: 1, write_data: 20
# read_en: 1, read_data: b7, empty: 0
# write_en: 1, write_data: a7
# read_en: 1, read_data: 6f, empty: 0
# write_en: 1, write_data: 3b
# read_en: 1, read_data: 20, empty: 0
# write_en: 1, write_data: 7b
# read_en: 1, read_data: a7, empty: 0
# write_en: 1, write_data: 60
# read_en: 1, read_data: 3b, empty: 0
# write_en: 1, write_data: de
# read_en: 1, read_data: 7b, empty: 0
# write_en: 1, write_data: 39
# read_en: 1, read_data: 60, empty: 0
# write_en: 1, write_data: df
# read_en: 1, read_data: de, empty: 0
# write_en: 1, write_data: 7c
# read_en: 1, read_data: 39, empty: 0
# write_en: 1, write_data: 51
# read_en: 1, read_data: df, empty: 0
# write_en: 1, write_data: b8
# read_en: 1, read_data: 7c, empty: 0
# write_en: 1, write_data: a5
# read_en: 1, read_data: 51, empty: 0
# write_en: 1, write_data: 8e
# read_en: 1, read_data: b8, empty: 0
# write_en: 1, write_data: 1e
# read_en: 1, read_data: a5, empty: 0
# write_en: 1, write_data: 99
# read_en: 1, read_data: 8e, empty: 0
# write_en: 1, write_data: 2e
# read_en: 1, read_data: 1e, empty: 0
# write_en: 1, write_data: 5f
# read_en: 1, read_data: 99, empty: 0
# write_en: 1, write_data: d8
# read_en: 1, read_data: 2e, empty: 0
# write_en: 1, write_data: e3
# read_en: 1, read_data: 5f, empty: 0
# write_en: 1, write_data: 30
# read_en: 1, read_data: d8, empty: 0
# write_en: 1, write_data: 17
# read_en: 1, read_data: e3, empty: 0
# write_en: 1, write_data: f2
# read_en: 1, read_data: 30, empty: 0
# write_en: 1, write_data: 1a
# read_en: 1, read_data: 17, empty: 0
# write_en: 1, write_data: 37
# read_en: 1, read_data: f2, empty: 0
# write_en: 1, write_data: 00
# read_en: 1, read_data: 1a, empty: 0
# write_en: 1, write_data: 9b
# read_en: 1, read_data: 37, empty: 0
# write_en: 1, write_data: 3a
# read_en: 1, read_data: 00, empty: 0
# write_en: 1, write_data: 7b
# read_en: 1, read_data: 9b, empty: 0
# write_en: 1, write_data: 02
# read_en: 1, read_data: 3a, empty: 0
# write_en: 1, write_data: f6
# read_en: 1, read_data: 7b, empty: 0
# write_en: 1, write_data: 81
# read_en: 1, read_data: 02, empty: 0
# write_en: 1, write_data: 81
# read_en: 1, read_data: f6, empty: 0
# write_en: 1, write_data: 0e
# read_en: 1, read_data: 81, empty: 0
# write_en: 1, write_data: b9
# read_en: 1, read_data: 81, empty: 0
# write_en: 1, write_data: c6
# read_en: 1, read_data: 0e, empty: 0
# write_en: 1, write_data: 30
# read_en: 1, read_data: b9, empty: 0
# write_en: 1, write_data: 52
# read_en: 1, read_data: c6, empty: 0
# write_en: 1, write_data: f4
# read_en: 1, read_data: 30, empty: 0
# write_en: 1, write_data: b5
# read_en: 1, read_data: 52, empty: 0
# write_en: 1, write_data: fc
# read_en: 1, read_data: f4, empty: 0
# write_en: 1, write_data: 97
# read_en: 1, read_data: b5, empty: 0
# write_en: 1, write_data: 6e
# read_en: 1, read_data: fc, empty: 0
# write_en: 1, write_data: 5a
# read_en: 1, read_data: 97, empty: 0
# write_en: 1, write_data: 76
# read_en: 1, read_data: 6e, empty: 0
# write_en: 1, write_data: f3
# read_en: 1, read_data: 5a, empty: 0
# write_en: 1, write_data: 4d
# read_en: 1, read_data: 76, empty: 0
# write_en: 1, write_data: 08
# read_en: 1, read_data: f3, empty: 0
# write_en: 1, write_data: 80
# read_en: 1, read_data: 4d, empty: 0
# write_en: 1, write_data: a8
# read_en: 1, read_data: 08, empty: 0
# write_en: 1, write_data: 4e
# read_en: 1, read_data: 80, empty: 0
# write_en: 1, write_data: 1f
# read_en: 1, read_data: a8, empty: 0
# write_en: 1, write_data: 9c
# read_en: 1, read_data: 4e, empty: 0
# write_en: 1, write_data: b8
# read_en: 1, read_data: 1f, empty: 0
# write_en: 1, write_data: ba
# read_en: 1, read_data: 9c, empty: 0
# write_en: 1, write_data: e8
# read_en: 1, read_data: b8, empty: 0
# write_en: 1, write_data: fb
# read_en: 1, read_data: ba, empty: 0
# write_en: 1, write_data: 33
# read_en: 1, read_data: e8, empty: 0
# write_en: 1, write_data: 20
# read_en: 1, read_data: fb, empty: 0
# write_en: 1, write_data: d7
# read_en: 1, read_data: 33, empty: 0
# write_en: 1, write_data: 82
# read_en: 1, read_data: 20, empty: 0
# write_en: 1, write_data: 53
# read_en: 1, read_data: d7, empty: 0
# write_en: 1, write_data: cc
# read_en: 1, read_data: 82, empty: 0
# write_en: 1, write_data: bd
# read_en: 1, read_data: 53, empty: 0
# write_en: 1, write_data: 5d
# read_en: 1, read_data: cc, empty: 0
# write_en: 1, write_data: de
# read_en: 1, read_data: bd, empty: 0
# write_en: 1, write_data: 47
# read_en: 1, read_data: 5d, empty: 0
# write_en: 1, write_data: 82
# read_en: 1, read_data: de, empty: 0
# write_en: 1, write_data: b2
# read_en: 1, read_data: 47, empty: 0
# write_en: 1, write_data: d6
# read_en: 1, read_data: 82, empty: 0
# write_en: 1, write_data: 49
# read_en: 1, read_data: b2, empty: 0
# write_en: 1, write_data: ee
# read_en: 1, read_data: d6, empty: 0
# write_en: 1, write_data: 47
# read_en: 1, read_data: 49, empty: 0
# write_en: 1, write_data: f7
# read_en: 1, read_data: ee, empty: 0
# write_en: 1, write_data: 5a
# read_en: 1, read_data: 47, empty: 0
# write_en: 1, write_data: 5b
# read_en: 1, read_data: f7, empty: 0
# write_en: 1, write_data: c9
# read_en: 1, read_data: 5a, empty: 0
# write_en: 1, write_data: 74
# read_en: 1, read_data: 5b, empty: 0
# write_en: 1, write_data: bf
# read_en: 1, read_data: c9, empty: 0
# write_en: 1, write_data: c5
# read_en: 1, read_data: 74, empty: 0
# write_en: 1, write_data: c7
# read_en: 1, read_data: bf, empty: 0
# write_en: 1, write_data: 5f
# read_en: 1, read_data: c5, empty: 0
# write_en: 1, write_data: bc
# read_en: 1, read_data: c7, empty: 0
# write_en: 1, write_data: 45
# read_en: 1, read_data: 5f, empty: 0
# write_en: 1, write_data: 1a
# read_en: 1, read_data: bc, empty: 0
# write_en: 1, write_data: 69
# read_en: 1, read_data: 45, empty: 0
# write_en: 1, write_data: f0
# read_en: 1, read_data: 1a, empty: 0
# write_en: 1, write_data: 78
# read_en: 1, read_data: 69, empty: 0
# write_en: 1, write_data: 25
# read_en: 1, read_data: f0, empty: 0
# write_en: 1, write_data: ff
# read_en: 1, read_data: 78, empty: 0
# write_en: 1, write_data: 7d
# read_en: 1, read_data: 25, empty: 0
# write_en: 1, write_data: a5
# read_en: 1, read_data: ff, empty: 0
# write_en: 1, write_data: 13
# read_en: 1, read_data: 7d, empty: 0
# write_en: 1, write_data: 83
# read_en: 1, read_data: a5, empty: 0
# write_en: 1, write_data: 2d
# read_en: 1, read_data: 13, empty: 0
# write_en: 1, write_data: 22
# read_en: 1, read_data: 83, empty: 0
# write_en: 1, write_data: 0f
# read_en: 1, read_data: 2d, empty: 0
# write_en: 1, write_data: 0d
# read_en: 1, read_data: 22, empty: 0
# write_en: 1, write_data: e3
# read_en: 1, read_data: 0f, empty: 0
# write_en: 1, write_data: e2
# read_en: 1, read_data: 0d, empty: 0
# write_en: 1, write_data: 75
# read_en: 1, read_data: e3, empty: 0
# write_en: 1, write_data: 82
# read_en: 1, read_data: e2, empty: 0
# write_en: 1, write_data: 4f
# read_en: 1, read_data: 75, empty: 0
# write_en: 1, write_data: 97
# read_en: 1, read_data: 82, empty: 0
# write_en: 1, write_data: 28
# read_en: 1, read_data: 4f, empty: 0
# write_en: 1, write_data: 58
# read_en: 1, read_data: 97, empty: 0
# write_en: 1, write_data: 06
# read_en: 1, read_data: 28, empty: 0
# write_en: 1, write_data: 31
# read_en: 1, read_data: 58, empty: 0
# write_en: 1, write_data: 83
# read_en: 1, read_data: 06, empty: 0
# write_en: 1, write_data: 76
# read_en: 1, read_data: 31, empty: 0
# write_en: 1, write_data: da
# read_en: 1, read_data: 83, empty: 0
# write_en: 1, write_data: 17
# read_en: 1, read_data: 76, empty: 0
# write_en: 1, write_data: e5
# read_en: 1, read_data: da, empty: 0
# write_en: 1, write_data: 37
# read_en: 1, read_data: 17, empty: 0
# write_en: 1, write_data: 97
# read_en: 1, read_data: e5, empty: 0
# write_en: 1, write_data: 23
# read_en: 1, read_data: 37, empty: 0
# write_en: 1, write_data: 86
# read_en: 1, read_data: 97, empty: 0
# write_en: 1, write_data: 2d
# read_en: 1, read_data: 23, empty: 0
# write_en: 1, write_data: 03
# read_en: 1, read_data: 86, empty: 0
# write_en: 1, write_data: 51
# read_en: 1, read_data: 2d, empty: 0
# write_en: 1, write_data: 87
# read_en: 1, read_data: 03, empty: 0
# write_en: 1, write_data: 64
# read_en: 1, read_data: 51, empty: 0
# write_en: 1, write_data: 41
# read_en: 1, read_data: 87, empty: 0
# write_en: 1, write_data: b8
# read_en: 1, read_data: 64, empty: 0
# write_en: 1, write_data: 69
# read_en: 1, read_data: 41, empty: 0
# write_en: 1, write_data: b8
# read_en: 1, read_data: b8, empty: 0
# write_en: 1, write_data: 8f
# read_en: 1, read_data: 69, empty: 0
# write_en: 1, write_data: c7
# read_en: 1, read_data: b8, empty: 0
# write_en: 1, write_data: 23
# read_en: 1, read_data: 8f, empty: 0
# write_en: 1, write_data: f7
# read_en: 1, read_data: c7, empty: 0
# write_en: 1, write_data: d3
# read_en: 1, read_data: 23, empty: 0
# write_en: 1, write_data: d3
# read_en: 1, read_data: f7, empty: 0
# write_en: 1, write_data: ed
# read_en: 1, read_data: d3, empty: 0
# write_en: 1, write_data: fd
# read_en: 1, read_data: d3, empty: 0
# write_en: 1, write_data: 07
# read_en: 1, read_data: ed, empty: 0
# write_en: 1, write_data: 1a
# read_en: 1, read_data: fd, empty: 0
# write_en: 1, write_data: 19
# read_en: 1, read_data: 07, empty: 0
# write_en: 1, write_data: 10
# read_en: 1, read_data: 1a, empty: 0
# write_en: 1, write_data: 70
# read_en: 1, read_data: 19, empty: 0
# write_en: 1, write_data: 85
# read_en: 1, read_data: 10, empty: 0
# write_en: 1, write_data: 97
# read_en: 1, read_data: 70, empty: 0
# write_en: 1, write_data: cb
# read_en: 1, read_data: 85, empty: 0
# write_en: 1, write_data: 27
# read_en: 1, read_data: 97, empty: 0
# write_en: 1, write_data: 84
# read_en: 1, read_data: cb, empty: 0
# write_en: 1, write_data: e6
# read_en: 1, read_data: 27, empty: 0
# write_en: 1, write_data: 2a
# read_en: 1, read_data: 84, empty: 0
# write_en: 1, write_data: 34
# read_en: 1, read_data: e6, empty: 0
# write_en: 1, write_data: 56
# read_en: 1, read_data: 2a, empty: 0
# write_en: 1, write_data: 81
# read_en: 1, read_data: 34, empty: 0
# write_en: 1, write_data: f0
# read_en: 1, read_data: 56, empty: 0
# write_en: 1, write_data: 5d
# read_en: 1, read_data: 81, empty: 0
# write_en: 1, write_data: a3
# read_en: 1, read_data: f0, empty: 0
# write_en: 1, write_data: 2e
# read_en: 1, read_data: 5d, empty: 0
# write_en: 1, write_data: 4f
# read_en: 1, read_data: a3, empty: 0
# write_en: 1, write_data: 6d
# read_en: 1, read_data: 2e, empty: 0
# write_en: 1, write_data: 5e
# read_en: 1, read_data: 4f, empty: 0
# write_en: 1, write_data: 17
# read_en: 1, read_data: 6d, empty: 0
# write_en: 1, write_data: 72
# read_en: 1, read_data: 5e, empty: 0
# write_en: 1, write_data: 19
# read_en: 1, read_data: 17, empty: 0
# write_en: 1, write_data: fd
# read_en: 1, read_data: 72, empty: 0
# write_en: 1, write_data: 99
# read_en: 1, read_data: 19, empty: 0
# write_en: 1, write_data: 42
# read_en: 1, read_data: fd, empty: 0
# write_en: 1, write_data: a7
# read_en: 1, read_data: 99, empty: 0
# write_en: 1, write_data: b5
# read_en: 1, read_data: 42, empty: 0
# write_en: 1, write_data: 84
# read_en: 1, read_data: a7, empty: 0
# write_en: 1, write_data: 44
# read_en: 1, read_data: b5, empty: 0
# write_en: 1, write_data: 1e
