fifo_verilog/transcript
# //  Questa Sim-64
# //  Version 2021.2_1 linux_x86_64 May 15 2021
# //
# //  Copyright 1991-2021 Mentor Graphics Corporation
# //  All Rights Reserved.
# //
# //  QuestaSim and its associated documentation contain trade
# //  secrets and commercial or financial information that are the property of
# //  Mentor Graphics Corporation and are privileged, confidential,
# //  and exempt from disclosure under the Freedom of Information Act,
# //  5 U.S.C. Section 552. Furthermore, this information
# //  is prohibited from disclosure under the Trade Secrets Act,
# //  18 U.S.C. Section 1905.
# //
# vsim -work ./build/work fifo_tb -do "run -all" 
# Start time: 23:51:26 on Feb 22,2025
# ** Note: (vsim-3812) Design is being optimized...
# ** Warning: ./src/fifo_memory.sv(78): (vopt-2685) [TFMPC] - Too few port connections for 'cmp_logic'.  Expected 5, found 4.
# ** Warning: ./src/fifo_memory.sv(78): (vopt-2718) [TFMPC] - Missing connection for port 'write_ena'.
# ** Note: (vsim-12126) Error and warning message counts have been restored: Errors=0, Warnings=2.
# Loading sv_std.std
# Loading work.fifo_tb(fast)
# Loading work.fifo_memory(fast)
# Loading work.write_interface(fast)
# Loading work.write_pointer(fast)
# Loading work.read_interface(fast)
# Loading work.read_pointer(fast)
# Loading work.dual_port_memory(fast)
# Loading work.compare_logic(fast)
# run -all
# ========== Test Write 1500 Then Read 100 ==========
# [WRITE THEN READ] Number of writes: 1500, Number of reads: 100
# Attempt 0: Writing data : e7 | full : 0 | empty : 1
# Attempt 1: Writing data : 7c | full : 0 | empty : 1
# Attempt 2: Writing data : 9c | full : 0 | empty : 0
# Attempt 3: Writing data : 1c | full : 0 | empty : 0
# Attempt 4: Writing data : e8 | full : 0 | empty : 0
# Attempt 5: Writing data : a7 | full : 0 | empty : 0
# Attempt 6: Writing data : 16 | full : 0 | empty : 0
# Attempt 7: Writing data : c4 | full : 0 | empty : 0
# Attempt 8: Writing data : 00 | full : 0 | empty : 0
# Attempt 9: Writing data : 59 | full : 0 | empty : 0
# Attempt 10: Writing data : f8 | full : 0 | empty : 0
# Attempt 11: Writing data : fb | full : 0 | empty : 0
# Attempt 12: Writing data : 11 | full : 0 | empty : 0
# Attempt 13: Writing data : a2 | full : 0 | empty : 0
# Attempt 14: Writing data : fc | full : 0 | empty : 0
# Attempt 15: Writing data : a5 | full : 0 | empty : 0
# Attempt 16: Writing data : de | full : 0 | empty : 0
# Attempt 17: Writing data : 96 | full : 0 | empty : 0
# Attempt 18: Writing data : 90 | full : 0 | empty : 0
# Attempt 19: Writing data : 17 | full : 0 | empty : 0
# Attempt 20: Writing data : de | full : 0 | empty : 0
# Attempt 21: Writing data : 83 | full : 0 | empty : 0
# Attempt 22: Writing data : 86 | full : 0 | empty : 0
# Attempt 23: Writing data : 14 | full : 0 | empty : 0
# Attempt 24: Writing data : cd | full : 0 | empty : 0
# Attempt 25: Writing data : 5c | full : 0 | empty : 0
# Attempt 26: Writing data : 4f | full : 0 | empty : 0
# Attempt 27: Writing data : b2 | full : 0 | empty : 0
# Attempt 28: Writing data : 97 | full : 0 | empty : 0
# Attempt 29: Writing data : ff | full : 0 | empty : 0
# Attempt 30: Writing data : 1e | full : 0 | empty : 0
# Attempt 31: Writing data : ac | full : 0 | empty : 0
# Attempt 32: Writing data : 2c | full : 0 | empty : 0
# Attempt 33: Writing data : e4 | full : 0 | empty : 0
# Attempt 34: Writing data : 9e | full : 0 | empty : 0
# Attempt 35: Writing data : 85 | full : 0 | empty : 0
# Attempt 36: Writing data : b2 | full : 0 | empty : 0
# Attempt 37: Writing data : 9b | full : 0 | empty : 0
# Attempt 38: Writing data : 52 | full : 0 | empty : 0
# Attempt 39: Writing data : ad | full : 0 | empty : 0
# Attempt 40: Writing data : 31 | full : 0 | empty : 0
# Attempt 41: Writing data : 18 | full : 0 | empty : 0
# Attempt 42: Writing data : 99 | full : 0 | empty : 0
# Attempt 43: Writing data : c0 | full : 0 | empty : 0
# Attempt 44: Writing data : 02 | full : 0 | empty : 0
# Attempt 45: Writing data : 8c | full : 0 | empty : 0
# Attempt 46: Writing data : e1 | full : 0 | empty : 0
# Attempt 47: Writing data : 88 | full : 0 | empty : 0
# Attempt 48: Writing data : 2f | full : 0 | empty : 0
# Attempt 49: Writing data : 35 | full : 0 | empty : 0
# Attempt 50: Writing data : 14 | full : 0 | empty : 0
# Attempt 51: Writing data : 0f | full : 0 | empty : 0
# Attempt 52: Writing data : 11 | full : 0 | empty : 0
# Attempt 53: Writing data : 2d | full : 0 | empty : 0
# Attempt 54: Writing data : 48 | full : 0 | empty : 0
# Attempt 55: Writing data : d7 | full : 0 | empty : 0
# Attempt 56: Writing data : 1d | full : 0 | empty : 0
# Attempt 57: Writing data : c1 | full : 0 | empty : 0
# Attempt 58: Writing data : f5 | full : 0 | empty : 0
# Attempt 59: Writing data : 98 | full : 0 | empty : 0
# Attempt 60: Writing data : 82 | full : 0 | empty : 0
# Attempt 61: Writing data : 82 | full : 0 | empty : 0
# Attempt 62: Writing data : 71 | full : 0 | empty : 0
# Attempt 63: Writing data : c1 | full : 0 | empty : 0
# Attempt 64: Writing data : 15 | full : 0 | empty : 0
# Attempt 65: Writing data : 53 | full : 0 | empty : 0
# Attempt 66: Writing data : 7e | full : 0 | empty : 0
# Attempt 67: Writing data : 8f | full : 0 | empty : 0
# Attempt 68: Writing data : 39 | full : 0 | empty : 0
# Attempt 69: Writing data : 5e | full : 0 | empty : 0
# Attempt 70: Writing data : 38 | full : 0 | empty : 0
# Attempt 71: Writing data : ab | full : 0 | empty : 0
# Attempt 72: Writing data : a1 | full : 0 | empty : 0
# Attempt 73: Writing data : 7a | full : 0 | empty : 0
# Attempt 74: Writing data : 18 | full : 0 | empty : 0
# Attempt 75: Writing data : 81 | full : 0 | empty : 0
# Attempt 76: Writing data : b8 | full : 0 | empty : 0
# Attempt 77: Writing data : 81 | full : 0 | empty : 0
# Attempt 78: Writing data : e1 | full : 0 | empty : 0
# Attempt 79: Writing data : f8 | full : 0 | empty : 0
# Attempt 80: Writing data : a2 | full : 0 | empty : 0
# Attempt 81: Writing data : 2f | full : 0 | empty : 0
# Attempt 82: Writing data : 0d | full : 0 | empty : 0
# Attempt 83: Writing data : 97 | full : 0 | empty : 0
# Attempt 84: Writing data : 38 | full : 0 | empty : 0
# Attempt 85: Writing data : 43 | full : 0 | empty : 0
# Attempt 86: Writing data : c1 | full : 0 | empty : 0
# Attempt 87: Writing data : 4d | full : 0 | empty : 0
# Attempt 88: Writing data : 1a | full : 0 | empty : 0
# Attempt 89: Writing data : 75 | full : 0 | empty : 0
# Attempt 90: Writing data : c9 | full : 0 | empty : 0
# Attempt 91: Writing data : d6 | full : 0 | empty : 0
# Attempt 92: Writing data : d3 | full : 0 | empty : 0
# Attempt 93: Writing data : 01 | full : 0 | empty : 0
# Attempt 94: Writing data : d6 | full : 0 | empty : 0
# Attempt 95: Writing data : 89 | full : 0 | empty : 0
# Attempt 96: Writing data : 2a | full : 0 | empty : 0
# Attempt 97: Writing data : bf | full : 0 | empty : 0
# Attempt 98: Writing data : e0 | full : 0 | empty : 0
# Attempt 99: Writing data : 0f | full : 0 | empty : 0
# Attempt 100: Writing data : a5 | full : 0 | empty : 0
# Attempt 101: Writing data : d4 | full : 0 | empty : 0
# Attempt 102: Writing data : 3f | full : 0 | empty : 0
# Attempt 103: Writing data : a3 | full : 0 | empty : 0
# Attempt 104: Writing data : 7e | full : 0 | empty : 0
# Attempt 105: Writing data : 59 | full : 0 | empty : 0
# Attempt 106: Writing data : 7d | full : 0 | empty : 0
# Attempt 107: Writing data : 4e | full : 0 | empty : 0
# Attempt 108: Writing data : 18 | full : 0 | empty : 0
# Attempt 109: Writing data : ba | full : 0 | empty : 0
# Attempt 110: Writing data : e2 | full : 0 | empty : 0
# Attempt 111: Writing data : db | full : 0 | empty : 0
# Attempt 112: Writing data : 33 | full : 0 | empty : 0
# Attempt 113: Writing data : 13 | full : 0 | empty : 0
# Attempt 114: Writing data : fc | full : 0 | empty : 0
# Attempt 115: Writing data : 71 | full : 0 | empty : 0
# Attempt 116: Writing data : bd | full : 0 | empty : 0
# Attempt 117: Writing data : 82 | full : 0 | empty : 0
# Attempt 118: Writing data : 89 | full : 0 | empty : 0
# Attempt 119: Writing data : 29 | full : 0 | empty : 0
# Attempt 120: Writing data : 81 | full : 0 | empty : 0
# Attempt 121: Writing data : 5e | full : 0 | empty : 0
# Attempt 122: Writing data : ad | full : 0 | empty : 0
# Attempt 123: Writing data : 57 | full : 0 | empty : 0
# Attempt 124: Writing data : 94 | full : 0 | empty : 0
# Attempt 125: Writing data : a8 | full : 0 | empty : 0
# Attempt 126: Writing data : 7d | full : 0 | empty : 0
# Attempt 127: Writing data : 74 | full : 0 | empty : 0
# Attempt 128: Writing data : a8 | full : 0 | empty : 0
# Attempt 129: Writing data : 4a | full : 0 | empty : 0
# Attempt 130: Writing data : af | full : 0 | empty : 0
# Attempt 131: Writing data : 59 | full : 0 | empty : 0
# Attempt 132: Writing data : 4d | full : 0 | empty : 0
# Attempt 133: Writing data : a1 | full : 0 | empty : 0
# Attempt 134: Writing data : 1e | full : 0 | empty : 0
# Attempt 135: Writing data : 1c | full : 0 | empty : 0
# Attempt 136: Writing data : fe | full : 0 | empty : 0
# Attempt 137: Writing data : 48 | full : 0 | empty : 0
# Attempt 138: Writing data : 25 | full : 0 | empty : 0
# Attempt 139: Writing data : 6a | full : 0 | empty : 0
# Attempt 140: Writing data : 49 | full : 0 | empty : 0
# Attempt 141: Writing data : ce | full : 0 | empty : 0
# Attempt 142: Writing data : 00 | full : 0 | empty : 0
# Attempt 143: Writing data : 33 | full : 0 | empty : 0
# Attempt 144: Writing data : c3 | full : 0 | empty : 0
# Attempt 145: Writing data : fe | full : 0 | empty : 0
# Attempt 146: Writing data : 5e | full : 0 | empty : 0
# Attempt 147: Writing data : bb | full : 0 | empty : 0
# Attempt 148: Writing data : 1b | full : 0 | empty : 0
# Attempt 149: Writing data : 8a | full : 0 | empty : 0
# Attempt 150: Writing data : 41 | full : 0 | empty : 0
# Attempt 151: Writing data : 3b | full : 0 | empty : 0
# Attempt 152: Writing data : ed | full : 0 | empty : 0
# Attempt 153: Writing data : 08 | full : 0 | empty : 0
# Attempt 154: Writing data : 79 | full : 0 | empty : 0
# Attempt 155: Writing data : 21 | full : 0 | empty : 0
# Attempt 156: Writing data : c4 | full : 0 | empty : 0
# Attempt 157: Writing data : 7e | full : 0 | empty : 0
# Attempt 158: Writing data : ac | full : 0 | empty : 0
# Attempt 159: Writing data : 93 | full : 0 | empty : 0
# Attempt 160: Writing data : b2 | full : 0 | empty : 0
# Attempt 161: Writing data : 88 | full : 0 | empty : 0
# Attempt 162: Writing data : 8f | full : 0 | empty : 0
# Attempt 163: Writing data : 06 | full : 0 | empty : 0
# Attempt 164: Writing data : 03 | full : 0 | empty : 0
# Attempt 165: Writing data : d6 | full : 0 | empty : 0
# Attempt 166: Writing data : b5 | full : 0 | empty : 0
# Attempt 167: Writing data : 45 | full : 0 | empty : 0
# Attempt 168: Writing data : fc | full : 0 | empty : 0
# Attempt 169: Writing data : e9 | full : 0 | empty : 0
# Attempt 170: Writing data : b0 | full : 0 | empty : 0
# Attempt 171: Writing data : ff | full : 0 | empty : 0
# Attempt 172: Writing data : 01 | full : 0 | empty : 0
# Attempt 173: Writing data : bd | full : 0 | empty : 0
# Attempt 174: Writing data : aa | full : 0 | empty : 0
# Attempt 175: Writing data : 20 | full : 0 | empty : 0
# Attempt 176: Writing data : 0b | full : 0 | empty : 0
# Attempt 177: Writing data : d9 | full : 0 | empty : 0
# Attempt 178: Writing data : d2 | full : 0 | empty : 0
# Attempt 179: Writing data : 2d | full : 0 | empty : 0
# Attempt 180: Writing data : 85 | full : 0 | empty : 0
# Attempt 181: Writing data : 4f | full : 0 | empty : 0
# Attempt 182: Writing data : f8 | full : 0 | empty : 0
# Attempt 183: Writing data : ac | full : 0 | empty : 0
# Attempt 184: Writing data : c4 | full : 0 | empty : 0
# Attempt 185: Writing data : 00 | full : 0 | empty : 0
# Attempt 186: Writing data : 78 | full : 0 | empty : 0
# Attempt 187: Writing data : 74 | full : 0 | empty : 0
# Attempt 188: Writing data : 3d | full : 0 | empty : 0
# Attempt 189: Writing data : 38 | full : 0 | empty : 0
# Attempt 190: Writing data : 59 | full : 0 | empty : 0
# Attempt 191: Writing data : 80 | full : 0 | empty : 0
# Attempt 192: Writing data : cb | full : 0 | empty : 0
# Attempt 193: Writing data : 05 | full : 0 | empty : 0
# Attempt 194: Writing data : 55 | full : 0 | empty : 0
# Attempt 195: Writing data : e0 | full : 0 | empty : 0
# Attempt 196: Writing data : 35 | full : 0 | empty : 0
# Attempt 197: Writing data : fd | full : 0 | empty : 0
# Attempt 198: Writing data : af | full : 0 | empty : 0
# Attempt 199: Writing data : 2c | full : 0 | empty : 0
# Attempt 200: Writing data : 1e | full : 0 | empty : 0
# Attempt 201: Writing data : 44 | full : 0 | empty : 0
# Attempt 202: Writing data : 0d | full : 0 | empty : 0
# Attempt 203: Writing data : 4b | full : 0 | empty : 0
# Attempt 204: Writing data : 7c | full : 0 | empty : 0
# Attempt 205: Writing data : b2 | full : 0 | empty : 0
# Attempt 206: Writing data : 63 | full : 0 | empty : 0
# Attempt 207: Writing data : e5 | full : 0 | empty : 0
# Attempt 208: Writing data : 47 | full : 0 | empty : 0
# Attempt 209: Writing data : 72 | full : 0 | empty : 0
# Attempt 210: Writing data : 80 | full : 0 | empty : 0
# Attempt 211: Writing data : dd | full : 0 | empty : 0
# Attempt 212: Writing data : 3e | full : 0 | empty : 0
# Attempt 213: Writing data : da | full : 0 | empty : 0
# Attempt 214: Writing data : 8a | full : 0 | empty : 0
# Attempt 215: Writing data : 23 | full : 0 | empty : 0
# Attempt 216: Writing data : 91 | full : 0 | empty : 0
# Attempt 217: Writing data : 20 | full : 0 | empty : 0
# Attempt 218: Writing data : 95 | full : 0 | empty : 0
# Attempt 219: Writing data : a2 | full : 0 | empty : 0
# Attempt 220: Writing data : 91 | full : 0 | empty : 0
# Attempt 221: Writing data : ed | full : 0 | empty : 0
# Attempt 222: Writing data : 55 | full : 0 | empty : 0
# Attempt 223: Writing data : ef | full : 0 | empty : 0
# Attempt 224: Writing data : f1 | full : 0 | empty : 0
# Attempt 225: Writing data : 5f | full : 0 | empty : 0
# Attempt 226: Writing data : 38 | full : 0 | empty : 0
# Attempt 227: Writing data : f0 | full : 0 | empty : 0
# Attempt 228: Writing data : a1 | full : 0 | empty : 0
# Attempt 229: Writing data : 28 | full : 0 | empty : 0
# Attempt 230: Writing data : bc | full : 0 | empty : 0
# Attempt 231: Writing data : fc | full : 0 | empty : 0
# Attempt 232: Writing data : e1 | full : 0 | empty : 0
# Attempt 233: Writing data : 5f | full : 0 | empty : 0
# Attempt 234: Writing data : ba | full : 0 | empty : 0
# Attempt 235: Writing data : 60 | full : 0 | empty : 0
# Attempt 236: Writing data : fd | full : 0 | empty : 0
# Attempt 237: Writing data : d2 | full : 0 | empty : 0
# Attempt 238: Writing data : 39 | full : 0 | empty : 0
# Attempt 239: Writing data : 26 | full : 0 | empty : 0
# Attempt 240: Writing data : 0f | full : 0 | empty : 0
# Attempt 241: Writing data : 9f | full : 0 | empty : 0
# Attempt 242: Writing data : 1a | full : 0 | empty : 0
# Attempt 243: Writing data : af | full : 0 | empty : 0
# Attempt 244: Writing data : e0 | full : 0 | empty : 0
# Attempt 245: Writing data : 59 | full : 0 | empty : 0
# Attempt 246: Writing data : 64 | full : 0 | empty : 0
# Attempt 247: Writing data : b1 | full : 0 | empty : 0
# Attempt 248: Writing data : 98 | full : 0 | empty : 0
# Attempt 249: Writing data : 73 | full : 0 | empty : 0
# Attempt 250: Writing data : 9b | full : 0 | empty : 0
# Attempt 251: Writing data : b8 | full : 0 | empty : 0
# Attempt 252: Writing data : 81 | full : 0 | empty : 0
# Attempt 253: Writing data : 1c | full : 0 | empty : 0
# Attempt 254: Writing data : bb | full : 0 | empty : 0
# Attempt 255: Writing data : fc | full : 0 | empty : 0
# Attempt 256: Writing data : 83 | full : 0 | empty : 0
# Attempt 257: Writing data : 77 | full : 0 | empty : 0
# Attempt 258: Writing data : 02 | full : 0 | empty : 0
# Attempt 259: Writing data : 02 | full : 0 | empty : 0
# Attempt 260: Writing data : 8f | full : 0 | empty : 0
# Attempt 261: Writing data : 3a | full : 0 | empty : 0
# Attempt 262: Writing data : 47 | full : 0 | empty : 0
# Attempt 263: Writing data : b1 | full : 0 | empty : 0
# Attempt 264: Writing data : d3 | full : 0 | empty : 0
# Attempt 265: Writing data : 75 | full : 0 | empty : 0
# Attempt 266: Writing data : 36 | full : 0 | empty : 0
# Attempt 267: Writing data : 7d | full : 0 | empty : 0
# Attempt 268: Writing data : 18 | full : 0 | empty : 0
# Attempt 269: Writing data : ef | full : 0 | empty : 0
# Attempt 270: Writing data : db | full : 0 | empty : 0
# Attempt 271: Writing data : f7 | full : 0 | empty : 0
# Attempt 272: Writing data : 74 | full : 0 | empty : 0
# Attempt 273: Writing data : ce | full : 0 | empty : 0
# Attempt 274: Writing data : 89 | full : 0 | empty : 0
# Attempt 275: Writing data : 01 | full : 0 | empty : 0
# Attempt 276: Writing data : 29 | full : 0 | empty : 0
# Attempt 277: Writing data : cf | full : 0 | empty : 0
# Attempt 278: Writing data : a0 | full : 0 | empty : 0
# Attempt 279: Writing data : 1d | full : 0 | empty : 0
# Attempt 280: Writing data : 39 | full : 0 | empty : 0
# Attempt 281: Writing data : 3b | full : 0 | empty : 0
# Attempt 282: Writing data : 69 | full : 0 | empty : 0
# Attempt 283: Writing data : 7c | full : 0 | empty : 0
# Attempt 284: Writing data : b4 | full : 0 | empty : 0
# Attempt 285: Writing data : a1 | full : 0 | empty : 0
# Attempt 286: Writing data : 58 | full : 0 | empty : 0
# Attempt 287: Writing data : 03 | full : 0 | empty : 0
# Attempt 288: Writing data : d4 | full : 0 | empty : 0
# Attempt 289: Writing data : 4d | full : 0 | empty : 0
# Attempt 290: Writing data : 3e | full : 0 | empty : 0
# Attempt 291: Writing data : de | full : 0 | empty : 0
# Attempt 292: Writing data : 5f | full : 0 | empty : 0
# Attempt 293: Writing data : c8 | full : 0 | empty : 0
# Attempt 294: Writing data : 03 | full : 0 | empty : 0
# Attempt 295: Writing data : 33 | full : 0 | empty : 0
# Attempt 296: Writing data : 57 | full : 0 | empty : 0
# Attempt 297: Writing data : ca | full : 0 | empty : 0
# Attempt 298: Writing data : 6f | full : 0 | empty : 0
# Attempt 299: Writing data : c8 | full : 0 | empty : 0
# Attempt 300: Writing data : 78 | full : 0 | empty : 0
# Attempt 301: Writing data : db | full : 0 | empty : 0
# Attempt 302: Writing data : dc | full : 0 | empty : 0
# Attempt 303: Writing data : 4a | full : 0 | empty : 0
# Attempt 304: Writing data : f5 | full : 0 | empty : 0
# Attempt 305: Writing data : 40 | full : 0 | empty : 0
# Attempt 306: Writing data : 46 | full : 0 | empty : 0
# Attempt 307: Writing data : 48 | full : 0 | empty : 0
# Attempt 308: Writing data : e0 | full : 0 | empty : 0
# Attempt 309: Writing data : 3d | full : 0 | empty : 0
# Attempt 310: Writing data : c6 | full : 0 | empty : 0
# Attempt 311: Writing data : 9b | full : 0 | empty : 0
# Attempt 312: Writing data : ea | full : 0 | empty : 0
# Attempt 313: Writing data : 71 | full : 0 | empty : 0
# Attempt 314: Writing data : f9 | full : 0 | empty : 0
# Attempt 315: Writing data : a6 | full : 0 | empty : 0
# Attempt 316: Writing data : 80 | full : 0 | empty : 0
# Attempt 317: Writing data : fe | full : 0 | empty : 0
# Attempt 318: Writing data : 26 | full : 0 | empty : 0
# Attempt 319: Writing data : 94 | full : 0 | empty : 0
# Attempt 320: Writing data : 04 | full : 0 | empty : 0
# Attempt 321: Writing data : ae | full : 0 | empty : 0
# Attempt 322: Writing data : a3 | full : 0 | empty : 0
# Attempt 323: Writing data : 90 | full : 0 | empty : 0
# Attempt 324: Writing data : 8e | full : 0 | empty : 0
# Attempt 325: Writing data : 64 | full : 0 | empty : 0
# Attempt 326: Writing data : 63 | full : 0 | empty : 0
# Attempt 327: Writing data : f6 | full : 0 | empty : 0
# Attempt 328: Writing data : 03 | full : 0 | empty : 0
# Attempt 329: Writing data : d0 | full : 0 | empty : 0
# Attempt 330: Writing data : 18 | full : 0 | empty : 0
# Attempt 331: Writing data : a9 | full : 0 | empty : 0
# Attempt 332: Writing data : d9 | full : 0 | empty : 0
# Attempt 333: Writing data : 87 | full : 0 | empty : 0
# Attempt 334: Writing data : b2 | full : 0 | empty : 0
# Attempt 335: Writing data : 04 | full : 0 | empty : 0
# Attempt 336: Writing data : f7 | full : 0 | empty : 0
# Attempt 337: Writing data : 5b | full : 0 | empty : 0
# Attempt 338: Writing data : 98 | full : 0 | empty : 0
# Attempt 339: Writing data : 66 | full : 0 | empty : 0
# Attempt 340: Writing data : b8 | full : 0 | empty : 0
# Attempt 341: Writing data : 18 | full : 0 | empty : 0
# Attempt 342: Writing data : a4 | full : 0 | empty : 0
# Attempt 343: Writing data : 07 | full : 0 | empty : 0
# Attempt 344: Writing data : ae | full : 0 | empty : 0
# Attempt 345: Writing data : 84 | full : 0 | empty : 0
# Attempt 346: Writing data : d2 | full : 0 | empty : 0
# Attempt 347: Writing data : 08 | full : 0 | empty : 0
# Attempt 348: Writing data : e5 | full : 0 | empty : 0
# Attempt 349: Writing data : c2 | full : 0 | empty : 0
# Attempt 350: Writing data : 39 | full : 0 | empty : 0
# Attempt 351: Writing data : ea | full : 0 | empty : 0
# Attempt 352: Writing data : 39 | full : 0 | empty : 0
# Attempt 353: Writing data : 10 | full : 0 | empty : 0
# Attempt 354: Writing data : 48 | full : 0 | empty : 0
# Attempt 355: Writing data : a4 | full : 0 | empty : 0
# Attempt 356: Writing data : 78 | full : 0 | empty : 0
# Attempt 357: Writing data : 54 | full : 0 | empty : 0
# Attempt 358: Writing data : 54 | full : 0 | empty : 0
# Attempt 359: Writing data : 6e | full : 0 | empty : 0
# Attempt 360: Writing data : 7e | full : 0 | empty : 0
# Attempt 361: Writing data : 88 | full : 0 | empty : 0
# Attempt 362: Writing data : 9b | full : 0 | empty : 0
# Attempt 363: Writing data : 9a | full : 0 | empty : 0
# Attempt 364: Writing data : 91 | full : 0 | empty : 0
# Attempt 365: Writing data : f1 | full : 0 | empty : 0
# Attempt 366: Writing data : 06 | full : 0 | empty : 0
# Attempt 367: Writing data : 18 | full : 0 | empty : 0
# Attempt 368: Writing data : 4c | full : 0 | empty : 0
# Attempt 369: Writing data : a8 | full : 0 | empty : 0
# Attempt 370: Writing data : 05 | full : 0 | empty : 0
# Attempt 371: Writing data : 67 | full : 0 | empty : 0
# Attempt 372: Writing data : ab | full : 0 | empty : 0
# Attempt 373: Writing data : b5 | full : 0 | empty : 0
# Attempt 374: Writing data : d7 | full : 0 | empty : 0
# Attempt 375: Writing data : 02 | full : 0 | empty : 0
# Attempt 376: Writing data : 71 | full : 0 | empty : 0
# Attempt 377: Writing data : de | full : 0 | empty : 0
# Attempt 378: Writing data : 24 | full : 0 | empty : 0
# Attempt 379: Writing data : af | full : 0 | empty : 0
# Attempt 380: Writing data : d0 | full : 0 | empty : 0
# Attempt 381: Writing data : ee | full : 0 | empty : 0
# Attempt 382: Writing data : df | full : 0 | empty : 0
# Attempt 383: Writing data : 98 | full : 0 | empty : 0
# Attempt 384: Writing data : f3 | full : 0 | empty : 0
# Attempt 385: Writing data : 9a | full : 0 | empty : 0
# Attempt 386: Writing data : 7e | full : 0 | empty : 0
# Attempt 387: Writing data : 1a | full : 0 | empty : 0
# Attempt 388: Writing data : c3 | full : 0 | empty : 0
# Attempt 389: Writing data : 28 | full : 0 | empty : 0
# Attempt 390: Writing data : 36 | full : 0 | empty : 0
# Attempt 391: Writing data : 05 | full : 0 | empty : 0
# Attempt 392: Writing data : c5 | full : 0 | empty : 0
# Attempt 393: Writing data : 9f | full : 0 | empty : 0
# Attempt 394: Writing data : e2 | full : 0 | empty : 0
# Attempt 395: Writing data : 9b | full : 0 | empty : 0
# Attempt 396: Writing data : cc | full : 0 | empty : 0
# Attempt 397: Writing data : 4a | full : 0 | empty : 0
# Attempt 398: Writing data : f4 | full : 0 | empty : 0
# Attempt 399: Writing data : 3f | full : 0 | empty : 0
# Attempt 400: Writing data : 4a | full : 0 | empty : 0
# Attempt 401: Writing data : 0a | full : 0 | empty : 0
# Attempt 402: Writing data : d3 | full : 0 | empty : 0
# Attempt 403: Writing data : 94 | full : 0 | empty : 0
# Attempt 404: Writing data : 68 | full : 0 | empty : 0
# Attempt 405: Writing data : b7 | full : 0 | empty : 0
# Attempt 406: Writing data : 8a | full : 0 | empty : 0
# Attempt 407: Writing data : a6 | full : 0 | empty : 0
# Attempt 408: Writing data : 4b | full : 0 | empty : 0
# Attempt 409: Writing data : 0d | full : 0 | empty : 0
# Attempt 410: Writing data : c5 | full : 0 | empty : 0
# Attempt 411: Writing data : a0 | full : 0 | empty : 0
# Attempt 412: Writing data : bc | full : 0 | empty : 0
# Attempt 413: Writing data : b3 | full : 0 | empty : 0
# Attempt 414: Writing data : ed | full : 0 | empty : 0
# Attempt 415: Writing data : 9f | full : 0 | empty : 0
# Attempt 416: Writing data : 6a | full : 0 | empty : 0
# Attempt 417: Writing data : a8 | full : 0 | empty : 0
# Attempt 418: Writing data : e5 | full : 0 | empty : 0
# Attempt 419: Writing data : c3 | full : 0 | empty : 0
# Attempt 420: Writing data : b9 | full : 0 | empty : 0
# Attempt 421: Writing data : f1 | full : 0 | empty : 0
# Attempt 422: Writing data : d1 | full : 0 | empty : 0
# Attempt 423: Writing data : 84 | full : 0 | empty : 0
# Attempt 424: Writing data : 73 | full : 0 | empty : 0
# Attempt 425: Writing data : b7 | full : 0 | empty : 0
# Attempt 426: Writing data : 17 | full : 0 | empty : 0
# Attempt 427: Writing data : bf | full : 0 | empty : 0
# Attempt 428: Writing data : 03 | full : 0 | empty : 0
# Attempt 429: Writing data : 8c | full : 0 | empty : 0
# Attempt 430: Writing data : a8 | full : 0 | empty : 0
# Attempt 431: Writing data : 41 | full : 0 | empty : 0
# Attempt 432: Writing data : d7 | full : 0 | empty : 0
# Attempt 433: Writing data : 1f | full : 0 | empty : 0
# Attempt 434: Writing data : 0c | full : 0 | empty : 0
# Attempt 435: Writing data : f0 | full : 0 | empty : 0
# Attempt 436: Writing data : 7f | full : 0 | empty : 0
# Attempt 437: Writing data : 57 | full : 0 | empty : 0
# Attempt 438: Writing data : 3e | full : 0 | empty : 0
# Attempt 439: Writing data : b6 | full : 0 | empty : 0
# Attempt 440: Writing data : 09 | full : 0 | empty : 0
# Attempt 441: Writing data : ca | full : 0 | empty : 0
# Attempt 442: Writing data : dc | full : 0 | empty : 0
# Attempt 443: Writing data : 84 | full : 0 | empty : 0
# Attempt 444: Writing data : b7 | full : 0 | empty : 0
# Attempt 445: Writing data : c4 | full : 0 | empty : 0
# Attempt 446: Writing data : 1c | full : 0 | empty : 0
# Attempt 447: Writing data : a8 | full : 0 | empty : 0
# Attempt 448: Writing data : e3 | full : 0 | empty : 0
# Attempt 449: Writing data : e3 | full : 0 | empty : 0
# Attempt 450: Writing data : cc | full : 0 | empty : 0
# Attempt 451: Writing data : 4f | full : 0 | empty : 0
# Attempt 452: Writing data : b6 | full : 0 | empty : 0
# Attempt 453: Writing data : 7f | full : 0 | empty : 0
# Attempt 454: Writing data : 75 | full : 0 | empty : 0
# Attempt 455: Writing data : fc | full : 0 | empty : 0
# Attempt 456: Writing data : 2a | full : 0 | empty : 0
# Attempt 457: Writing data : 87 | full : 0 | empty : 0
# Attempt 458: Writing data : 83 | full : 0 | empty : 0
# Attempt 459: Writing data : b4 | full : 0 | empty : 0
# Attempt 460: Writing data : 97 | full : 0 | empty : 0
# Attempt 461: Writing data : 0c | full : 0 | empty : 0
# Attempt 462: Writing data : a5 | full : 0 | empty : 0
# Attempt 463: Writing data : c3 | full : 0 | empty : 0
# Attempt 464: Writing data : 4a | full : 0 | empty : 0
# Attempt 465: Writing data : 1d | full : 0 | empty : 0
# Attempt 466: Writing data : 10 | full : 0 | empty : 0
# Attempt 467: Writing data : 4f | full : 0 | empty : 0
# Attempt 468: Writing data : bf | full : 0 | empty : 0
# Attempt 469: Writing data : 1f | full : 0 | empty : 0
# Attempt 470: Writing data : c4 | full : 0 | empty : 0
# Attempt 471: Writing data : b2 | full : 0 | empty : 0
# Attempt 472: Writing data : f6 | full : 0 | empty : 0
# Attempt 473: Writing data : bf | full : 0 | empty : 0
# Attempt 474: Writing data : 05 | full : 0 | empty : 0
# Attempt 475: Writing data : 05 | full : 0 | empty : 0
# Attempt 476: Writing data : ed | full : 0 | empty : 0
# Attempt 477: Writing data : 60 | full : 0 | empty : 0
# Attempt 478: Writing data : 5f | full : 0 | empty : 0
# Attempt 479: Writing data : 3d | full : 0 | empty : 0
# Attempt 480: Writing data : 5b | full : 0 | empty : 0
# Attempt 481: Writing data : ee | full : 0 | empty : 0
# Attempt 482: Writing data : d2 | full : 0 | empty : 0
# Attempt 483: Writing data : 8b | full : 0 | empty : 0
# Attempt 484: Writing data : 8a | full : 0 | empty : 0
# Attempt 485: Writing data : 15 | full : 0 | empty : 0
# Attempt 486: Writing data : fd | full : 0 | empty : 0
# Attempt 487: Writing data : e0 | full : 0 | empty : 0
# Attempt 488: Writing data : 4a | full : 0 | empty : 0
# Attempt 489: Writing data : 64 | full : 0 | empty : 0
# Attempt 490: Writing data : df | full : 0 | empty : 0
# Attempt 491: Writing data : 72 | full : 0 | empty : 0
# Attempt 492: Writing data : 93 | full : 0 | empty : 0
# Attempt 493: Writing data : 80 | full : 0 | empty : 0
# Attempt 494: Writing data : 13 | full : 0 | empty : 0
# Attempt 495: Writing data : 92 | full : 0 | empty : 0
